[   {
        "Name": "Appetizers" 
    },
    {
        "Name": "Side Dishes"
    },
    {
        "Name": "Entrees"
    },
    {
        "Name": "Desserts"
    },
    {
        "Name": "Salads"
    },
    {
        "Name": "Soups"
    },
    {
        "Name": "Drinks"
    }
]